Data 202 – HW 01
…
September 05, 2022

Spring 2022

the purpose of this program is to detect the optimal amount of
rental bikes in each area for maxium effiecency and avoid delays for the
customer.

This is data in relevance to the issue at hand (2011-2012)

bikedata <- read_csv('~/data202/homework01/bikeshare-day-simple.csv', show_col_types = FALSE)
bikedata

## # A tibble: 731 × 4
##    date       day_of_week workingday total_rides
##    <date>           <dbl> <chr>            <dbl>
##  1 2011-01-01           6 weekend            654
##  2 2011-01-02           0 weekend            670
##  3 2011-01-03           1 workday           1229
##  4 2011-01-04           2 workday           1454
##  5 2011-01-05           3 workday           1518
##  6 2011-01-06           4 workday           1518
##  7 2011-01-07           5 workday           1362
##  8 2011-01-08           6 weekend            891
##  9 2011-01-09           0 weekend            768
## 10 2011-01-10           1 workday           1280
## # … with 721 more rows
…
